module go.l0nax.org/vanity

go 1.22.0

require (
	github.com/a-h/templ v0.2.543
	github.com/gofiber/fiber/v2 v2.52.1
	github.com/knadh/koanf/parsers/yaml v0.1.0
	github.com/knadh/koanf/providers/file v0.1.0
	github.com/knadh/koanf/v2 v2.1.0
	github.com/pkg/errors v0.9.1
	github.com/valyala/fasthttp v1.52.0
)

require (
	github.com/andybalholm/brotli v1.1.0 // indirect
	github.com/fsnotify/fsnotify v1.6.0 // indirect
	github.com/go-viper/mapstructure/v2 v2.0.0-alpha.1 // indirect
	github.com/google/uuid v1.5.0 // indirect
	github.com/klauspost/compress v1.17.6 // indirect
	github.com/knadh/koanf/maps v0.1.1 // indirect
	github.com/mattn/go-colorable v0.1.13 // indirect
	github.com/mattn/go-isatty v0.0.20 // indirect
	github.com/mattn/go-runewidth v0.0.15 // indirect
	github.com/mitchellh/copystructure v1.2.0 // indirect
	github.com/mitchellh/reflectwalk v1.0.2 // indirect
	github.com/rivo/uniseg v0.2.0 // indirect
	github.com/valyala/bytebufferpool v1.0.0 // indirect
	github.com/valyala/tcplisten v1.0.0 // indirect
	golang.org/x/sys v0.17.0 // indirect
	gopkg.in/yaml.v3 v3.0.1 // indirect
)
